{
  "cviceni": {
    "version": {
      "global": "<%= version %>",
      "content": 2
    },
    "id": 25,
    "katalog": [
      "test",
      "public"
    ],
    "language": "cs",
    "slug": "proc-byli-vysidleni",
    "nazev": "Proč byli vysídleni?",
    "autor": [
      "Kamil Činátl",
      "Matěj Spurný",
      "Tereza Vávrová"
    ],
    "klicovaSlova": [
      "mnichovská dohoda",
      "druhá světová válka",
      "vysídlení",
      "příčiny a důsledky",
      "hodnocení minulosti",
      "dobové perspektivy",
      "analýza a srovnání fotografie"
    ],
    "anotace": {
      "ucitel": "Žáci si prostřednictvím dobových fotografií uvědomí, jaký dopad mělo vysídlování Čechů z pohraničí v roce 1938 a Němců z ČSR v roce 1945 na život konkrétních lidí. Srovnávání fotografií a dalších pramenů (mnichovská dohoda, prezidentský dekret o úpravě občanství) vede k promýšlení odlišných důvodů, které k vysídlení vedly.",
      "verejna": "Pokuste se vcítit do chlapce a ženy, kteří nuceně opouštějí své domovy. Jak se to mohlo stát? Vezměte si na pomoc důležité dokumenty a zjistěte, jak navždy ovlivnily tisíce životů."
    },
    "trvani": 45,
    "funkce": [
      "lupa",
      "text",
      "svg",
      "znacky"
    ],
    "pdf": {
      "doporucenyPostup": "proc-byli-vysidleni.pdf"
    },
    "uvodniObrazek": "proc-byli-vysidleni/pic-01-1280w.jpg"
  },
  "slajd": [
    {
      "zadani": {
        "hlavni": "Prohlédněte si fotografii.",
        "rozsirujici": ""
      },
      "napoveda": {
        "aktivity": [
          "lupa"
        ],
        "text": ""
      },
      "prameny": [
        "proc-byli-vysidleni/pic-00-1024h.jpg"
      ],
      "popisky": [
        "Čeští obyvatelé opouští pohraničí, které bylo po přijetí mnichovské dohody zabráno nacistickým Německem (Polička, říjen 1938). <br>Zdroj: ČTK"
      ]
    },
    {
      "zadani": {
        "hlavni": "Prohlédněte si druhou fotografii.",
        "rozsirujici": ""
      },
      "napoveda": {
        "aktivity": [
          "lupa"
        ],
        "text": ""
      },
      "prameny": [
        "proc-byli-vysidleni/pic-01-1280w.jpg"
      ],
      "popisky": [
        "Čeští Němci čekají na transport k vysídlení z Československa (Praha Holešovice, Strossmayerovo náměstí, květen 1945). <br>Zdroj: ČTK"
      ]
    },
    {
      "zadani": {
        "hlavni": "Popište, co se děje na fotografii.",
        "rozsirujici": ""
      },
      "napoveda": {
        "aktivity": [
          "svg"
        ],
        "text": "Kliknutím na snímek levým tlačítkem myši označujete bod. Nakliknutím na bod pravým tlačítkem otevřete menu s nabídkou úkonů: změnit barvu bodu, (T) doplnit textový komentář, (X) smazat nakliknutý objekt."
      },
      "svg": {
        "soubory": [
          {
            "id": "svg-1",
            "soubor": "proc-byli-vysidleni/pic-00-1024h.jpg",
            "funkce": [
              "text",
              "znacky"
            ]
          }
        ]
      }
    },
    {
      "zadani": {
        "hlavni": "Popište, co se děje na fotografii.",
        "rozsirujici": ""
      },
      "napoveda": {
        "aktivity": [
          "svg"
        ],
        "text": "Kliknutím na snímek levým tlačítkem myši označujete bod. Nakliknutím na bod pravým tlačítkem otevřete menu s nabídkou úkonů: změnit barvu bodu, (T) doplnit textový komentář, (X) smazat nakliknutý objekt."
      },
      "svg": {
        "soubory": [
          {
            "id": "svg-2",
            "soubor": "proc-byli-vysidleni/pic-01-1280w.jpg",
            "funkce": [
              "text",
              "znacky"
            ]
          }
        ]
      }
    },
    {
      "zadani": {
        "hlavni": " Pokuste se vcítit do chlapce a mladé ženy na fotografiích.",
        "rozsirujici": "Popište, jak se mohli v dané situaci cítit."
      },
      "napoveda": {
        "aktivity": [
          "svg"
        ],
        "text": "Kliknutím na snímek levým tlačítkem myši označujete bod. Nakliknutím na bod pravým tlačítkem otevřete menu s nabídkou úkonů: změnit barvu bodu, (T) doplnit textový komentář, (X) smazat nakliknutý objekt."
      },
      "svg": {
        "soubory": [
          {
            "id": "svg-3",
            "soubor": "proc-byli-vysidleni/pic-00-1024h.jpg",
            "funkce": [
              "text",
              "znacky",
              "komiks"
            ],
            "komiks": [
              {
                "kategorie": "text",
                "subkategorie": "promluva",
                "pozice": [
                  140,
                  360
                ],
                "subjekt": [
                  "top",
                  "right"
                ]
              },
              {
                "kategorie": "text",
                "subkategorie": "myslenka",
                "pozice": [
                  480,
                  180
                ],
                "subjekt": [
                  "bottom",
                  "left"
                ]
              }
            ]
          },
          {
            "id": "svg-4",
            "soubor": "proc-byli-vysidleni/pic-01-1024w.jpg",
            "funkce": [
              "text",
              "znacky",
              "komiks"
            ],
            "komiks": [
              {
                "kategorie": "text",
                "subkategorie": "promluva",
                "pozice": [
                  375,
                  350
                ],
                "subjekt": [
                  "top",
                  "right"
                ]
              },
              {
                "kategorie": "text",
                "subkategorie": "myslenka",
                "pozice": [
                  705,
                  175
                ],
                "subjekt": [
                  "bottom",
                  "left"
                ]
              }
            ]
          }
        ]
      }
    },
    {
      "zadani": {
        "hlavni": "Přečtěte si ukázky z historických dokumentů a pátrejte po příčinách vysídlení.",
        "rozsirujici": ""
      },
      "napoveda": {
        "aktivity": [
          "text"
        ],
        "text": ""
      },
      "textovyEditor": {
        "texty": [
          {
            "id": 0,
            "text": "text-00",
            "funkce": "zvyraznovani",
            "menu": [
              {
                "title": "Označit pasáž.",
                "classes": "text-orange",
                "command": "toggle-class",
                "commandName": "mnichovska-dohoda",
                "commandOptions": {
                  "toggleClass": "node-selected node-text-orange",
                  "closeBtn": true,
                  "comments": false,
                  "commentsClass": "text-orange"
                }
              }
            ]
          },
          {
            "id": 1,
            "text": "text-01",
            "funkce": "zvyraznovani",
            "menu": [
              {
                "title": "Označit pasáž.",
                "classes": "text-red",
                "command": "toggle-class",
                "commandName": "ustavni-dekret",
                "commandOptions": {
                  "toggleClass": "node-selected node-text-red",
                  "closeBtn": true,
                  "comments": false,
                  "commentsClass": "text-red"
                }
              }
            ]
          }
        ]
      }
    },
    {
      "zadani": {
        "hlavni": "Přečtěte si text a zasaďte fotografie do dobových souvislostí.",
        "rozsirujici": "Označte důležité pasáže."
      },
      "napoveda": {
        "aktivity": [
          "text"
        ],
        "text": ""
      },
      "textovyEditor": {
        "texty": [
          {
            "id": 2,
            "text": "text-02",
            "funkce": "zvyraznovani",
            "menu": [
              {
                "title": "Označit pasáž.",
                "classes": "text-blue",
                "command": "toggle-class",
                "commandName": "dulezite-pasaze",
                "commandOptions": {
                  "toggleClass": "node-selected node-text-blue",
                  "closeBtn": true,
                  "comments": false,
                  "commentsClass": "text-blue"
                }
              }
            ]
          }
        ]
      }
    },
    {
      "zadani": {
        "hlavni": "Shrňte výsledky pátrání.",
        "rozsirujici": ""
      },
      "napoveda": {
        "aktivity": [
          "text"
        ],
        "text": ""
      },
      "uzivatelskyText": {
        "galerie": [
          {
            "soubor": "proc-byli-vysidleni/pic-00-1024h.jpg"
          },
          {
            "soubor": "proc-byli-vysidleni/pic-01-1280w.jpg"
          }
        ],
        "otazky": [
          {
            "id": "text-1",
            "zadani": "Proč byl vysídlen chlapec?",
            "instrukce": "Myslím si, že…",
            "minDelka": 10,
            "maxDelka": 400
          },
          {
            "id": "text-2",
            "zadani": "Proč byla vysídlena mladá žena?",
            "instrukce": "Myslím si, že…",
            "minDelka": 10,
            "maxDelka": 400
          }
        ]
      }
    }
  ]
}
